…
city_or |>
  arrange(desc(or)) |>
  print(n = 10)
```

    ## # A tibble: 47 × 5
    ##    city_state            n    or or_low or_hi
    ##    <chr>             <int> <dbl>  <dbl> <dbl>
    ##  1 Albuquerque, NM     173 1.77   0.825  3.76
    ##  2 Stockton, CA        191 1.35   0.626  2.99
    ##  3 Fresno, CA          210 1.34   0.567  3.05
    ##  4 Nashville, TN       745 1.03   0.681  1.56
    ##  5 Richmond, VA        301 1.01   0.483  1.99
    ##  6 Atlanta, GA         940 1.00   0.680  1.46
    ##  7 Tulsa, OK           511 0.976  0.609  1.54
    ##  8 Oklahoma City, OK   510 0.974  0.623  1.52
    ##  9 Minneapolis, MN     299 0.947  0.476  1.88
    ## 10 Indianapolis, IN   1237 0.919  0.678  1.24
    ## # ℹ 37 more rows
…
